# 3ds Max Wavefront OBJ Exporter v0.97b - (c)2007 guruware
# File Created: 15.05.2016 21:00:12

mtllib meteo.mtl

#
# object GeoSphere001
#

v  -39.2000 62.8745 -22.9333
v  12.1368 36.3006 -22.9333
v  -71.2051 54.3586 -85.9657
v  20.0787 -20.9582 -22.9333
v  -13.5316 -36.3006 -67.3923
v  -75.1760 -20.9582 -103.1122
v  -64.8684 36.3006 21.5257
v  -115.6641 -58.0652 -21.8228
v  -68.8393 -14.4936 35.3123
v  -13.5316 -36.3006 21.5257
# 10 vertices

vn 0.4334 0.8373 -0.3332
vn 0.7749 0.1075 -0.6229
vn 0.6181 0.2399 -0.7486
vn 0.5247 0.1626 -0.8356
vn -0.5516 0.8167 0.1697
vn -0.9102 0.1370 -0.3908
vn -0.8964 0.4254 0.1243
vn -0.8280 0.2062 0.5213
vn 0.3596 0.6947 0.6229
vn 0.3183 0.2251 0.9209
vn 0.4714 0.3333 0.8165
vn 0.7749 0.1075 0.6229
vn 0.4153 -0.9097 -0.0000
vn -0.1249 -0.7369 0.6644
vn 0.2084 -0.9780 -0.0000
vn 0.0111 -0.9117 -0.4107
# 16 vertex normals

vt 0.6667 1.0000 62.8745
vt 0.5000 0.6959 62.8745
vt 0.8333 0.6959 62.8745
vt 0.5000 0.3918 62.8745
vt 0.6667 0.3041 62.8745
vt 0.8333 0.3918 62.8745
vt -0.0000 1.0000 62.8745
vt -0.1667 0.6959 62.8745
vt 0.1667 0.6959 62.8745
vt 1.0000 0.3041 62.8745
vt 0.0000 0.3041 62.8745
vt 0.1667 0.3918 62.8745
vt 0.3333 1.0000 62.8745
vt 0.3333 0.3041 62.8745
# 14 texture coords

g GeoSphere001
usemtl wire_087225143
s off
f 1/1/1 2/2/1 3/3/1 
f 2/2/2 4/4/2 5/5/2 
f 2/2/3 5/5/3 3/3/3 
f 3/3/4 5/5/4 6/6/4 
f 1/7/5 3/8/5 7/9/5 
f 3/3/6 6/6/6 8/10/6 
f 3/8/7 8/11/7 7/9/7 
f 7/9/8 8/11/8 9/12/8 
f 1/13/9 7/9/9 2/2/9 
f 7/9/10 9/12/10 10/14/10 
f 7/9/11 10/14/11 2/2/11 
f 2/2/12 10/14/12 4/4/12 
f 4/4/13 10/14/13 5/5/13 
f 10/14/14 9/12/14 8/11/14 
f 10/14/15 8/11/15 5/5/15 
f 5/5/16 8/10/16 6/6/16 
# 0 polygons - 16 triangles

#
# object GeoSphere002
#

v  176.2544 33.5222 -20.4363
v  227.5612 51.7897 -27.3345
v  144.2886 40.0360 -81.1819
v  235.4214 -1.5566 -23.5323
v  202.1170 -26.1924 -65.7264
v  140.4436 -7.5288 -100.3601
v  150.6423 5.8926 23.2417
v  99.7097 -73.0616 -25.2586
v  146.7020 -36.8651 38.2551
v  201.9611 -39.2835 23.1917
# 10 vertices

vn -0.2940 0.9216 0.2535
vn 0.7639 0.0668 -0.6419
vn 0.5019 0.2447 -0.8296
vn 0.5330 0.2790 -0.7988
vn -0.4065 0.8608 0.3062
vn -0.9241 0.2048 -0.3226
vn -0.8746 0.4426 0.1979
vn -0.8409 0.2466 0.4817
vn -0.2582 0.8777 0.4038
vn 0.2632 0.2979 0.9176
vn 0.3374 0.3824 0.8602
vn 0.7393 0.1556 0.6551
vn 0.6749 -0.7302 -0.1063
vn 0.0827 -0.8909 0.4465
vn 0.3678 -0.9201 -0.1348
vn 0.1118 -0.7780 -0.6183
# 16 vertex normals

vt 0.6667 1.0000 62.8745
vt 0.5000 0.6959 62.8745
vt 0.8333 0.6959 62.8745
vt 0.5000 0.3918 62.8745
vt 0.6667 0.3041 62.8745
vt 0.8333 0.3918 62.8745
vt -0.0000 1.0000 62.8745
vt -0.1667 0.6959 62.8745
vt 0.1667 0.6959 62.8745
vt 1.0000 0.3041 62.8745
vt 0.0000 0.3041 62.8745
vt 0.1667 0.3918 62.8745
vt 0.3333 1.0000 62.8745
vt 0.3333 0.3041 62.8745
# 14 texture coords

g GeoSphere002
usemtl wire_087225143
s off
f 11/15/17 12/16/17 13/17/17 
f 12/16/18 14/18/18 15/19/18 
f 12/16/19 15/19/19 13/17/19 
f 13/17/20 15/19/20 16/20/20 
f 11/21/21 13/22/21 17/23/21 
f 13/17/22 16/20/22 18/24/22 
f 13/22/23 18/25/23 17/23/23 
f 17/23/24 18/25/24 19/26/24 
f 11/27/25 17/23/25 12/16/25 
f 17/23/26 19/26/26 20/28/26 
f 17/23/27 20/28/27 12/16/27 
f 12/16/28 20/28/28 14/18/28 
f 14/18/29 20/28/29 15/19/29 
f 20/28/30 19/26/30 18/25/30 
f 20/28/31 18/25/31 15/19/31 
f 15/19/32 18/24/32 16/20/32 
# 0 polygons - 16 triangles

#
# object GeoSphere003
#

v  391.8561 99.7411 -21.9396
v  443.2906 33.6024 -22.7313
v  359.9156 45.0507 -84.0221
v  451.4468 -26.4100 -20.4156
v  417.6330 -46.5184 -75.2188
v  355.7019 -25.4135 -109.3442
v  366.1643 40.4822 23.1874
v  315.7549 -21.6988 -21.3075
v  362.6526 -11.2154 26.5912
v  417.7174 10.5267 13.6993
# 10 vertices

vn 0.5682 0.4501 -0.6889
vn 0.8320 0.0920 -0.5471
vn 0.5913 0.3008 -0.7482
vn 0.5322 0.2579 -0.8064
vn -0.8943 0.4418 0.0710
vn -0.8888 0.2011 -0.4118
vn -0.7994 0.5965 0.0720
vn -0.7216 0.0942 0.6859
vn 0.4983 0.3781 0.7802
vn 0.2089 0.0501 0.9767
vn 0.4571 0.5706 0.6823
vn 0.7714 0.1289 0.6231
vn -0.3512 -0.7879 0.5058
vn 0.3384 -0.9324 -0.1272
vn 0.0804 -0.8390 0.5382
vn -0.2786 -0.9566 -0.0860
# 16 vertex normals

vt 0.6667 1.0000 62.8745
vt 0.5000 0.6959 62.8745
vt 0.8333 0.6959 62.8745
vt 0.5000 0.3918 62.8745
vt 0.6667 0.3041 62.8745
vt 0.8333 0.3918 62.8745
vt -0.0000 1.0000 62.8745
vt -0.1667 0.6959 62.8745
vt 0.1667 0.6959 62.8745
vt 1.0000 0.3041 62.8745
vt 0.0000 0.3041 62.8745
vt 0.1667 0.3918 62.8745
vt 0.3333 1.0000 62.8745
vt 0.3333 0.3041 62.8745
# 14 texture coords

g GeoSphere003
usemtl wire_087225143
s off
f 21/29/33 22/30/33 23/31/33 
f 22/30/34 24/32/34 25/33/34 
f 22/30/35 25/33/35 23/31/35 
f 23/31/36 25/33/36 26/34/36 
f 21/35/37 23/36/37 27/37/37 
f 23/31/38 26/34/38 28/38/38 
f 23/36/39 28/39/39 27/37/39 
f 27/37/40 28/39/40 29/40/40 
f 21/41/41 27/37/41 22/30/41 
f 27/37/42 29/40/42 30/42/42 
f 27/37/43 30/42/43 22/30/43 
f 22/30/44 30/42/44 24/32/44 
f 24/32/45 30/42/45 25/33/45 
f 30/42/46 29/40/46 28/39/46 
f 30/42/47 28/39/47 25/33/47 
f 25/33/48 28/38/48 26/34/48 
# 0 polygons - 16 triangles

#
# object GeoSphere004
#

v  607.4479 63.0210 -23.1737
v  658.6780 49.3323 -23.1181
v  575.3424 38.6283 -84.7029
v  666.6455 -17.4464 -23.3494
v  633.1738 -35.6490 -72.1823
v  571.4128 -42.0008 -98.1752
v  581.8843 33.0889 22.3781
v  531.0243 -54.7274 -25.6792
v  577.6624 -16.7881 40.8113
v  633.0028 -11.5911 16.7358
# 10 vertices

vn 0.2297 0.8578 -0.4599
vn 0.8035 0.0979 -0.5872
vn 0.5441 0.2910 -0.7869
vn 0.3725 0.1353 -0.9181
vn -0.6951 0.7145 0.0794
vn -0.8761 0.1207 -0.4669
vn -0.8806 0.4674 0.0780
vn -0.8539 0.2425 0.4606
vn 0.2030 0.7622 0.6147
vn 0.3573 0.2970 0.8855
vn 0.4146 0.3693 0.8317
vn 0.7693 0.0896 0.6326
vn 0.1420 -0.9554 0.2588
vn 0.2375 -0.9060 0.3504
vn 0.2868 -0.9246 0.2507
vn 0.1411 -0.9855 -0.0944
# 16 vertex normals

vt 0.6667 1.0000 62.8745
vt 0.5000 0.6959 62.8745
vt 0.8333 0.6959 62.8745
vt 0.5000 0.3918 62.8745
vt 0.6667 0.3041 62.8745
vt 0.8333 0.3918 62.8745
vt -0.0000 1.0000 62.8745
vt -0.1667 0.6959 62.8745
vt 0.1667 0.6959 62.8745
vt 1.0000 0.3041 62.8745
vt 0.0000 0.3041 62.8745
vt 0.1667 0.3918 62.8745
vt 0.3333 1.0000 62.8745
vt 0.3333 0.3041 62.8745
# 14 texture coords

g GeoSphere004
usemtl wire_087225143
s off
f 31/43/49 32/44/49 33/45/49 
f 32/44/50 34/46/50 35/47/50 
f 32/44/51 35/47/51 33/45/51 
f 33/45/52 35/47/52 36/48/52 
f 31/49/53 33/50/53 37/51/53 
f 33/45/54 36/48/54 38/52/54 
f 33/50/55 38/53/55 37/51/55 
f 37/51/56 38/53/56 39/54/56 
f 31/55/57 37/51/57 32/44/57 
f 37/51/58 39/54/58 40/56/58 
f 37/51/59 40/56/59 32/44/59 
f 32/44/60 40/56/60 34/46/60 
f 34/46/61 40/56/61 35/47/61 
f 40/56/62 39/54/62 38/53/62 
f 40/56/63 38/53/63 35/47/63 
f 35/47/64 38/52/64 36/48/64 
# 0 polygons - 16 triangles

#
# object GeoSphere005
#

v  823.3795 68.7538 -33.6349
v  874.5474 14.5248 -21.9811
v  791.0255 83.7952 -90.2409
v  882.1498 -42.0454 -19.2870
v  848.5752 -33.1444 -64.1123
v  787.1406 -0.2677 -100.0353
v  797.2491 22.3725 16.4948
v  746.5272 -89.3470 -13.7468
v  793.1235 0.5714 36.3298
v  848.4159 -46.3346 24.8057
# 10 vertices

vn 0.7306 0.6359 -0.2486
vn 0.8054 0.0803 -0.5873
vn 0.7148 0.2022 -0.6694
vn 0.5325 0.0736 -0.8432
vn -0.4579 0.7587 0.4633
vn -0.9322 0.0841 -0.3520
vn -0.9053 0.3432 0.2503
vn -0.9110 0.3583 0.2043
vn 0.4165 0.5488 0.7248
vn 0.5599 0.4971 0.6629
vn 0.4379 0.4221 0.7937
vn 0.7807 0.1340 0.6103
vn -0.0660 -0.9870 -0.1465
vn -0.1642 -0.4136 0.8955
vn 0.4275 -0.8944 -0.1319
vn 0.0378 -0.7041 -0.7091
# 16 vertex normals

vt 0.6667 1.0000 62.8745
vt 0.5000 0.6959 62.8745
vt 0.8333 0.6959 62.8745
vt 0.5000 0.3918 62.8745
vt 0.6667 0.3041 62.8745
vt 0.8333 0.3918 62.8745
vt -0.0000 1.0000 62.8745
vt -0.1667 0.6959 62.8745
vt 0.1667 0.6959 62.8745
vt 1.0000 0.3041 62.8745
vt 0.0000 0.3041 62.8745
vt 0.1667 0.3918 62.8745
vt 0.3333 1.0000 62.8745
vt 0.3333 0.3041 62.8745
# 14 texture coords

g GeoSphere005
usemtl wire_087225143
s off
f 41/57/65 42/58/65 43/59/65 
f 42/58/66 44/60/66 45/61/66 
f 42/58/67 45/61/67 43/59/67 
f 43/59/68 45/61/68 46/62/68 
f 41/63/69 43/64/69 47/65/69 
f 43/59/70 46/62/70 48/66/70 
f 43/64/71 48/67/71 47/65/71 
f 47/65/72 48/67/72 49/68/72 
f 41/69/73 47/65/73 42/58/73 
f 47/65/74 49/68/74 50/70/74 
f 47/65/75 50/70/75 42/58/75 
f 42/58/76 50/70/76 44/60/76 
f 44/60/77 50/70/77 45/61/77 
f 50/70/78 49/68/78 48/67/78 
f 50/70/79 48/67/79 45/61/79 
f 45/61/80 48/66/80 46/62/80 
# 0 polygons - 16 triangles

#
# object GeoSphere006
#

v  1038.5745 76.4547 -24.0898
v  1089.8667 42.4297 -25.3721
v  1006.5873 60.6067 -87.8389
v  1098.0544 -4.3269 -26.9123
v  1064.2291 -41.3488 -76.2252
v  1002.6644 -20.1279 -105.0924
v  1012.9365 44.4989 20.1519
v  962.1415 -103.1911 -17.7156
v  1008.7583 -26.9601 32.9782
v  1064.3326 1.7327 12.6928
# 10 vertices

vn 0.4905 0.7557 -0.4340
vn 0.7573 0.1535 -0.6347
vn 0.6150 0.2630 -0.7434
vn 0.4645 0.1634 -0.8704
vn -0.6607 0.7358 0.1486
vn -0.9384 0.1152 -0.3257
vn -0.9485 0.3004 0.1006
vn -0.8276 0.1457 0.5420
vn 0.4178 0.6042 0.6785
vn 0.2671 0.1551 0.9511
vn 0.4687 0.4285 0.7725
vn 0.7650 0.1131 0.6340
vn 0.3303 -0.8496 0.4112
vn 0.5341 -0.6697 0.5160
vn 0.6222 -0.7048 0.3407
vn 0.0612 -0.7374 -0.6726
# 16 vertex normals

vt 0.6667 1.0000 62.8745
vt 0.5000 0.6959 62.8745
vt 0.8333 0.6959 62.8745
vt 0.5000 0.3918 62.8745
vt 0.6667 0.3041 62.8745
vt 0.8333 0.3918 62.8745
vt -0.0000 1.0000 62.8745
vt -0.1667 0.6959 62.8745
vt 0.1667 0.6959 62.8745
vt 1.0000 0.3041 62.8745
vt 0.0000 0.3041 62.8745
vt 0.1667 0.3918 62.8745
vt 0.3333 1.0000 62.8745
vt 0.3333 0.3041 62.8745
# 14 texture coords

g GeoSphere006
usemtl wire_087225143
s off
f 51/71/81 52/72/81 53/73/81 
f 52/72/82 54/74/82 55/75/82 
f 52/72/83 55/75/83 53/73/83 
f 53/73/84 55/75/84 56/76/84 
f 51/77/85 53/78/85 57/79/85 
f 53/73/86 56/76/86 58/80/86 
f 53/78/87 58/81/87 57/79/87 
f 57/79/88 58/81/88 59/82/88 
f 51/83/89 57/79/89 52/72/89 
f 57/79/90 59/82/90 60/84/90 
f 57/79/91 60/84/91 52/72/91 
f 52/72/92 60/84/92 54/74/92 
f 54/74/93 60/84/93 55/75/93 
f 60/84/94 59/82/94 58/81/94 
f 60/84/95 58/81/95 55/75/95 
f 55/75/96 58/80/96 56/76/96 
# 0 polygons - 16 triangles

#
# object GeoSphere007
#

v  -64.9509 155.9134 339.7632
v  5.9959 84.5191 340.4654
v  -100.3737 84.0581 271.9772
v  49.3231 -3.6597 325.1808
v  -13.9436 21.5490 245.0871
v  -121.3997 42.6189 227.3734
v  47.9020 -77.0794 339.1896
v  13.8647 -72.1978 271.2051
v  -50.8559 -104.0025 217.6600
v  -120.9704 -31.3241 230.3067
v  -99.9469 97.1451 394.5991
v  -166.1412 86.0709 328.1396
v  -121.4886 35.8799 424.5387
v  -156.7258 -62.4687 294.2397
v  -156.8684 -51.1179 368.7831
v  -120.5766 -36.7301 424.7094
v  -13.6697 82.5397 420.9450
v  -50.8111 -50.1377 414.8253
v  13.8210 -83.0345 393.8270
v  -39.8889 -97.9118 331.7809
# 20 vertices

vn 0.4773 0.4670 -0.7444
vn 0.7630 0.4546 -0.4596
vn 0.3607 0.7419 -0.5652
vn 0.2460 0.6496 -0.7194
vn 0.8864 -0.1033 -0.4512
vn 0.7931 0.0666 -0.6055
vn 0.6437 -0.0222 -0.7649
vn 0.1903 0.1558 -0.9693
vn -0.2173 -0.0400 -0.9753
vn -0.8772 0.4777 -0.0479
vn -0.4113 0.7563 -0.5088
vn -0.0599 0.9926 -0.1057
vn -0.6520 0.5054 0.5652
vn -0.8673 -0.0248 -0.4971
vn -0.9071 0.0382 -0.4192
vn -0.9978 -0.0651 0.0080
vn -0.8898 0.0733 0.4503
vn -0.8377 -0.0092 0.5460
vn 0.4479 0.4527 0.7710
vn -0.1801 0.4823 0.8573
vn 0.1486 0.9870 0.0606
vn 0.8891 0.3975 0.2270
vn 0.1410 0.0041 0.9900
vn 0.0604 -0.0629 0.9962
vn 0.2534 -0.1152 0.9605
vn 0.8574 0.0586 0.5112
vn 0.8411 0.0856 0.5340
vn 0.0329 -0.9956 -0.0880
vn -0.2848 -0.8466 0.4496
vn 0.3531 -0.9319 -0.0822
vn 0.4370 -0.8994 0.0060
vn -0.1334 -0.9355 0.3272
vn -0.1959 -0.8609 0.4695
vn -0.3287 -0.9338 0.1416
vn -0.3130 -0.9463 0.0806
vn -0.6275 -0.5018 -0.5954
# 36 vertex normals

vt 0.6667 1.0000 119.0469
vt 0.5000 0.7973 119.0469
vt 0.8333 0.7973 119.0469
vt 0.5000 0.5946 119.0469
vt 0.6667 0.6749 119.0469
vt 0.8333 0.5946 119.0469
vt 0.5000 0.3918 119.0469
vt 0.6056 0.3153 119.0469
vt 0.7277 0.3153 119.0469
vt 0.8333 0.3918 119.0469
vt -0.0000 1.0000 119.0469
vt -0.1667 0.7973 119.0469
vt 0.1667 0.7973 119.0469
vt 1.0000 0.6749 119.0469
vt 0.0000 0.6749 119.0469
vt 0.1667 0.5946 119.0469
vt 0.9389 0.3153 119.0469
vt -0.0611 0.3153 119.0469
vt 0.0611 0.3153 119.0469
vt 0.1667 0.3918 119.0469
vt 0.3333 1.0000 119.0469
vt 0.3333 0.6749 119.0469
vt 0.2723 0.3153 119.0469
vt 0.3944 0.3153 119.0469
vt 0.5000 0.0667 119.0469
# 25 texture coords

g GeoSphere007
usemtl wire_225088199
s off
f 61/85/97 62/86/97 63/87/97 
f 62/86/98 64/88/98 65/89/98 
f 62/86/99 65/89/99 63/87/99 
f 63/87/100 65/89/100 66/90/100 
f 64/88/101 67/91/101 68/92/101 
f 64/88/102 68/92/102 65/89/102 
f 65/89/103 68/92/103 69/93/103 
f 65/89/104 69/93/104 66/90/104 
f 66/90/105 69/93/105 70/94/105 
f 61/95/106 63/96/106 71/97/106 
f 63/87/107 66/90/107 72/98/107 
f 63/96/108 72/99/108 71/97/108 
f 71/97/109 72/99/109 73/100/109 
f 66/90/110 70/94/110 74/101/110 
f 66/90/111 74/101/111 72/98/111 
f 72/99/112 74/102/112 75/103/112 
f 72/99/113 75/103/113 73/100/113 
f 73/100/114 75/103/114 76/104/114 
f 61/105/115 71/97/115 62/86/115 
f 71/97/116 73/100/116 77/106/116 
f 71/97/117 77/106/117 62/86/117 
f 62/86/118 77/106/118 64/88/118 
f 73/100/119 76/104/119 78/107/119 
f 73/100/120 78/107/120 77/106/120 
f 77/106/121 78/107/121 79/108/121 
f 77/106/122 79/108/122 64/88/122 
f 64/88/123 79/108/123 67/91/123 
f 67/91/124 79/108/124 68/92/124 
f 79/108/125 78/107/125 80/109/125 
f 79/108/126 80/109/126 68/92/126 
f 68/92/127 80/109/127 69/93/127 
f 78/107/128 76/104/128 75/103/128 
f 78/107/129 75/103/129 80/109/129 
f 80/109/130 75/103/130 74/102/130 
f 80/109/131 74/101/131 69/93/131 
f 69/93/132 74/101/132 70/94/132 
# 0 polygons - 36 triangles

#
# object GeoSphere008
#

v  221.0471 124.9261 333.8245
v  292.4471 73.2797 327.6246
v  186.6009 121.5256 271.3785
v  335.9540 61.1850 335.7383
v  272.6266 78.8741 239.8217
v  163.9561 13.8155 235.7214
v  333.3113 -11.2514 325.0952
v  300.0413 -47.6033 257.5109
v  236.5661 -50.4181 232.6172
v  166.0038 -59.9079 240.2824
v  185.5445 109.6815 394.0004
v  121.1037 45.8918 331.4080
v  164.7178 37.0634 432.8867
v  128.6632 -64.5612 303.7317
v  129.5021 -107.4696 378.2751
v  164.3975 -36.2524 434.6852
v  272.1848 53.4292 415.6796
v  234.1365 -77.3757 429.7825
v  299.7180 -13.0961 380.1328
v  246.2954 -138.1977 333.9488
# 20 vertices

vn 0.5327 0.7767 -0.3361
vn 0.2677 0.9635 0.0010
vn 0.4320 0.9010 -0.0401
vn -0.1697 0.3417 -0.9244
vn 0.8891 0.0346 -0.4563
vn 0.8387 0.1071 -0.5340
vn 0.3666 -0.0505 -0.9290
vn 0.0052 0.0542 -0.9985
vn -0.0992 -0.0642 -0.9930
vn -0.2592 0.9615 0.0906
vn -0.8158 0.3290 -0.4756
vn -0.7308 0.6800 0.0594
vn -0.8107 0.4396 0.3867
vn -0.8587 -0.0554 -0.5094
vn -0.9063 0.0433 -0.4204
vn -0.9978 -0.0621 -0.0245
vn -0.9141 0.0719 0.3991
vn -0.8594 0.0163 0.5111
vn 0.5382 0.6850 0.4910
vn 0.0729 0.4545 0.8878
vn 0.4672 0.8334 0.2954
vn 0.2130 0.9415 0.2613
vn 0.0842 0.0241 0.9962
vn 0.1484 0.0632 0.9869
vn 0.6690 -0.1154 0.7342
vn 0.7821 -0.0092 0.6230
vn 0.8503 -0.1067 0.5154
vn 0.4462 -0.8611 0.2435
vn 0.7778 -0.4813 0.4042
vn 0.8955 -0.4277 0.1227
vn 0.2838 -0.7111 -0.6433
vn -0.2508 -0.5225 0.8149
vn -0.0197 -0.8453 0.5340
vn -0.3845 -0.8019 -0.4573
vn -0.3038 -0.7344 -0.6070
vn 0.1339 -0.9910 0.0061
# 36 vertex normals

vt 0.6667 1.0000 119.0469
vt 0.5000 0.7973 119.0469
vt 0.8333 0.7973 119.0469
vt 0.5000 0.5946 119.0469
vt 0.6667 0.6749 119.0469
vt 0.8333 0.5946 119.0469
vt 0.5000 0.3918 119.0469
vt 0.6056 0.3153 119.0469
vt 0.7277 0.3153 119.0469
vt 0.8333 0.3918 119.0469
vt -0.0000 1.0000 119.0469
vt -0.1667 0.7973 119.0469
vt 0.1667 0.7973 119.0469
vt 1.0000 0.6749 119.0469
vt 0.0000 0.6749 119.0469
vt 0.1667 0.5946 119.0469
vt 0.9389 0.3153 119.0469
vt -0.0611 0.3153 119.0469
vt 0.0611 0.3153 119.0469
vt 0.1667 0.3918 119.0469
vt 0.3333 1.0000 119.0469
vt 0.3333 0.6749 119.0469
vt 0.2723 0.3153 119.0469
vt 0.3944 0.3153 119.0469
vt 0.5000 0.0667 119.0469
# 25 texture coords

g GeoSphere008
usemtl wire_225088199
s off
f 81/110/133 82/111/133 83/112/133 
f 82/111/134 84/113/134 85/114/134 
f 82/111/135 85/114/135 83/112/135 
f 83/112/136 85/114/136 86/115/136 
f 84/113/137 87/116/137 88/117/137 
f 84/113/138 88/117/138 85/114/138 
f 85/114/139 88/117/139 89/118/139 
f 85/114/140 89/118/140 86/115/140 
f 86/115/141 89/118/141 90/119/141 
f 81/120/142 83/121/142 91/122/142 
f 83/112/143 86/115/143 92/123/143 
f 83/121/144 92/124/144 91/122/144 
f 91/122/145 92/124/145 93/125/145 
f 86/115/146 90/119/146 94/126/146 
f 86/115/147 94/126/147 92/123/147 
f 92/124/148 94/127/148 95/128/148 
f 92/124/149 95/128/149 93/125/149 
f 93/125/150 95/128/150 96/129/150 
f 81/130/151 91/122/151 82/111/151 
f 91/122/152 93/125/152 97/131/152 
f 91/122/153 97/131/153 82/111/153 
f 82/111/154 97/131/154 84/113/154 
f 93/125/155 96/129/155 98/132/155 
f 93/125/156 98/132/156 97/131/156 
f 97/131/157 98/132/157 99/133/157 
f 97/131/158 99/133/158 84/113/158 
f 84/113/159 99/133/159 87/116/159 
f 87/116/160 99/133/160 88/117/160 
f 99/133/161 98/132/161 100/134/161 
f 99/133/162 100/134/162 88/117/162 
f 88/117/163 100/134/163 89/118/163 
f 98/132/164 96/129/164 95/128/164 
f 98/132/165 95/128/165 100/134/165 
f 100/134/166 95/128/166 94/127/166 
f 100/134/167 94/126/167 89/118/167 
f 89/118/168 94/126/168 90/119/168 
# 0 polygons - 36 triangles

#
# object GeoSphere009
#

v  507.6177 119.1933 327.9286
v  578.1950 82.3052 337.0918
v  471.9808 88.4957 275.3299
v  621.3091 42.5429 337.4490
v  558.1053 42.9001 239.4193
v  450.2590 7.1375 225.3186
v  619.7090 -36.3638 324.3235
v  585.9034 -82.9431 273.6338
v  521.4055 -70.6255 224.7257
v  451.4623 -62.2601 234.2196
v  471.9949 93.7853 397.9518
v  406.0349 71.0195 330.8644
v  450.5777 82.9631 422.4839
v  415.3878 -61.2226 287.5211
v  415.1902 -32.6911 362.0645
v  451.7611 4.4391 428.6224
v  558.3572 71.0083 415.2772
v  521.6448 -28.0772 421.8910
v  586.1808 -96.1005 396.2556
v  532.4352 -93.0105 322.5645
# 20 vertices

vn 0.4160 0.6340 -0.6519
vn 0.6233 0.6723 -0.3994
vn 0.2881 0.8660 -0.4086
vn -0.0675 0.5355 -0.8418
vn 0.7913 0.0847 -0.6055
vn 0.8399 0.0383 -0.5414
vn 0.5913 -0.0874 -0.8017
vn 0.0974 0.0967 -0.9905
vn -0.1484 -0.1283 -0.9806
vn -0.6233 0.7812 -0.0336
vn -0.6259 0.5228 -0.5787
vn -0.2883 0.9567 -0.0412
vn -0.3867 0.9197 0.0681
vn -0.8259 -0.0858 -0.5573
vn -0.9027 0.0750 -0.4236
vn -0.9964 -0.0796 0.0278
vn -0.9008 0.0503 0.4314
vn -0.8817 0.0236 0.4713
vn 0.3587 0.8040 0.4742
vn 0.1284 0.8611 0.4920
vn 0.2139 0.9577 0.1926
vn 0.6520 0.7093 0.2679
vn 0.1320 0.0792 0.9881
vn 0.0711 0.0402 0.9967
vn 0.3182 -0.0547 0.9464
vn 0.7869 0.0611 0.6141
vn 0.9272 -0.0797 0.3660
vn 0.8378 -0.5426 -0.0601
vn -0.5860 -0.7059 0.3978
vn 0.0890 -0.9903 -0.1065
vn -0.0186 -0.9751 -0.2210
vn -0.2955 -0.7560 0.5841
vn -0.2512 -0.8224 0.5104
vn -0.3391 -0.8789 0.3355
vn -0.2017 -0.9595 -0.1968
vn -0.1275 -0.9896 -0.0670
# 36 vertex normals

vt 0.6667 1.0000 119.0469
vt 0.5000 0.7973 119.0469
vt 0.8333 0.7973 119.0469
vt 0.5000 0.5946 119.0469
vt 0.6667 0.6749 119.0469
vt 0.8333 0.5946 119.0469
vt 0.5000 0.3918 119.0469
vt 0.6056 0.3153 119.0469
vt 0.7277 0.3153 119.0469
vt 0.8333 0.3918 119.0469
vt -0.0000 1.0000 119.0469
vt -0.1667 0.7973 119.0469
vt 0.1667 0.7973 119.0469
vt 1.0000 0.6749 119.0469
vt 0.0000 0.6749 119.0469
vt 0.1667 0.5946 119.0469
vt 0.9389 0.3153 119.0469
vt -0.0611 0.3153 119.0469
vt 0.0611 0.3153 119.0469
vt 0.1667 0.3918 119.0469
vt 0.3333 1.0000 119.0469
vt 0.3333 0.6749 119.0469
vt 0.2723 0.3153 119.0469
vt 0.3944 0.3153 119.0469
vt 0.5000 0.0667 119.0469
# 25 texture coords

g GeoSphere009
usemtl wire_225088199
s off
f 101/135/169 102/136/169 103/137/169 
f 102/136/170 104/138/170 105/139/170 
f 102/136/171 105/139/171 103/137/171 
f 103/137/172 105/139/172 106/140/172 
f 104/138/173 107/141/173 108/142/173 
f 104/138/174 108/142/174 105/139/174 
f 105/139/175 108/142/175 109/143/175 
f 105/139/176 109/143/176 106/140/176 
f 106/140/177 109/143/177 110/144/177 
f 101/145/178 103/146/178 111/147/178 
f 103/137/179 106/140/179 112/148/179 
f 103/146/180 112/149/180 111/147/180 
f 111/147/181 112/149/181 113/150/181 
f 106/140/182 110/144/182 114/151/182 
f 106/140/183 114/151/183 112/148/183 
f 112/149/184 114/152/184 115/153/184 
f 112/149/185 115/153/185 113/150/185 
f 113/150/186 115/153/186 116/154/186 
f 101/155/187 111/147/187 102/136/187 
f 111/147/188 113/150/188 117/156/188 
f 111/147/189 117/156/189 102/136/189 
f 102/136/190 117/156/190 104/138/190 
f 113/150/191 116/154/191 118/157/191 
f 113/150/192 118/157/192 117/156/192 
f 117/156/193 118/157/193 119/158/193 
f 117/156/194 119/158/194 104/138/194 
f 104/138/195 119/158/195 107/141/195 
f 107/141/196 119/158/196 108/142/196 
f 119/158/197 118/157/197 120/159/197 
f 119/158/198 120/159/198 108/142/198 
f 108/142/199 120/159/199 109/143/199 
f 118/157/200 116/154/200 115/153/200 
f 118/157/201 115/153/201 120/159/201 
f 120/159/202 115/153/202 114/152/202 
f 120/159/203 114/151/203 109/143/203 
f 109/143/204 114/151/204 110/144/204 
# 0 polygons - 36 triangles

#
# object GeoSphere010
#

v  789.3495 139.4909 332.9445
v  861.6874 126.9669 334.5102
v  754.9487 96.2146 271.0052
v  916.0971 19.2270 338.7229
v  834.0589 37.2080 242.9397
v  725.0850 46.8389 224.5702
v  904.3805 -57.0539 322.2703
v  870.9091 -88.3048 271.7360
v  797.8751 -84.9578 240.7223
v  741.2205 -32.5535 227.0063
v  761.5319 61.4721 393.6270
v  694.5107 88.6524 326.4518
v  736.8643 34.5736 421.7355
v  694.4808 -73.9720 288.8561
v  694.3633 -17.2833 363.3995
v  750.7509 -40.0452 421.4091
v  847.7953 30.9835 418.7975
v  811.7883 -76.9032 437.8876
v  875.7562 -74.7570 394.3578
v  825.1757 -93.3223 332.1865
# 20 vertices

vn 0.1469 0.7707 -0.6200
vn 0.7424 0.3526 -0.5697
vn 0.2364 0.6573 -0.7156
vn 0.1837 0.6122 -0.7691
vn 0.8366 -0.0104 -0.5477
vn 0.7644 0.0776 -0.6401
vn 0.3852 -0.0974 -0.9177
vn 0.1635 -0.0305 -0.9861
vn 0.2545 0.0220 -0.9668
vn -0.8769 0.4480 0.1740
vn -0.5074 0.7330 -0.4531
vn 0.1229 0.9565 0.2644
vn -0.2347 0.7969 0.5566
vn -0.7288 -0.1685 -0.6636
vn -0.9466 0.0728 -0.3139
vn -1.0000 0.0007 -0.0021
vn -0.8619 0.1681 0.4785
vn -0.7369 -0.1400 0.6613
vn 0.0853 0.5926 0.8010
vn 0.0416 0.7034 0.7096
vn 0.0133 0.6587 0.7523
vn 0.7281 0.3898 0.5638
vn -0.2931 -0.0587 0.9543
vn 0.0314 0.1640 0.9860
vn 0.5631 -0.0419 0.8254
vn 0.7636 0.0532 0.6435
vn 0.9253 -0.2102 0.3158
vn 0.6308 -0.7735 0.0605
vn 0.1485 -0.9742 0.1701
vn 0.2350 -0.9671 0.0976
vn -0.0080 -0.9960 -0.0887
vn -0.5466 -0.8097 0.2136
vn -0.4881 -0.8697 0.0733
vn -0.3035 -0.7587 0.5765
vn -0.1294 -0.9902 -0.0519
vn -0.3886 -0.6025 -0.6971
# 36 vertex normals

vt 0.6667 1.0000 119.0469
vt 0.5000 0.7973 119.0469
vt 0.8333 0.7973 119.0469
vt 0.5000 0.5946 119.0469
vt 0.6667 0.6749 119.0469
vt 0.8333 0.5946 119.0469
vt 0.5000 0.3918 119.0469
vt 0.6056 0.3153 119.0469
vt 0.7277 0.3153 119.0469
vt 0.8333 0.3918 119.0469
vt -0.0000 1.0000 119.0469
vt -0.1667 0.7973 119.0469
vt 0.1667 0.7973 119.0469
vt 1.0000 0.6749 119.0469
vt 0.0000 0.6749 119.0469
vt 0.1667 0.5946 119.0469
vt 0.9389 0.3153 119.0469
vt -0.0611 0.3153 119.0469
vt 0.0611 0.3153 119.0469
vt 0.1667 0.3918 119.0469
vt 0.3333 1.0000 119.0469
vt 0.3333 0.6749 119.0469
vt 0.2723 0.3153 119.0469
vt 0.3944 0.3153 119.0469
vt 0.5000 0.0667 119.0469
# 25 texture coords

g GeoSphere010
usemtl wire_225088199
s off
f 121/160/205 122/161/205 123/162/205 
f 122/161/206 124/163/206 125/164/206 
f 122/161/207 125/164/207 123/162/207 
f 123/162/208 125/164/208 126/165/208 
f 124/163/209 127/166/209 128/167/209 
f 124/163/210 128/167/210 125/164/210 
f 125/164/211 128/167/211 129/168/211 
f 125/164/212 129/168/212 126/165/212 
f 126/165/213 129/168/213 130/169/213 
f 121/170/214 123/171/214 131/172/214 
f 123/162/215 126/165/215 132/173/215 
f 123/171/216 132/174/216 131/172/216 
f 131/172/217 132/174/217 133/175/217 
f 126/165/218 130/169/218 134/176/218 
f 126/165/219 134/176/219 132/173/219 
f 132/174/220 134/177/220 135/178/220 
f 132/174/221 135/178/221 133/175/221 
f 133/175/222 135/178/222 136/179/222 
f 121/180/223 131/172/223 122/161/223 
f 131/172/224 133/175/224 137/181/224 
f 131/172/225 137/181/225 122/161/225 
f 122/161/226 137/181/226 124/163/226 
f 133/175/227 136/179/227 138/182/227 
f 133/175/228 138/182/228 137/181/228 
f 137/181/229 138/182/229 139/183/229 
f 137/181/230 139/183/230 124/163/230 
f 124/163/231 139/183/231 127/166/231 
f 127/166/232 139/183/232 128/167/232 
f 139/183/233 138/182/233 140/184/233 
f 139/183/234 140/184/234 128/167/234 
f 128/167/235 140/184/235 129/168/235 
f 138/182/236 136/179/236 135/178/236 
f 138/182/237 135/178/237 140/184/237 
f 140/184/238 135/178/238 134/177/238 
f 140/184/239 134/176/239 129/168/239 
f 129/168/240 134/176/240 130/169/240 
# 0 polygons - 36 triangles

#
# object GeoSphere011
#

v  1076.6394 103.0789 333.3499
v  1149.0959 132.6272 327.9386
v  1044.9423 94.6622 266.6912
v  1192.2007 63.6682 327.9373
v  1134.0555 77.1955 240.5244
v  1027.1243 27.5809 227.4566
v  1182.7217 -9.9595 323.7263
v  1156.8259 -47.5302 261.6302
v  1101.3379 -64.1826 235.6159
v  1030.2870 -46.2082 228.9668
v  1042.4274 71.2471 389.3130
v  972.0730 110.2947 318.5190
v  1025.9780 48.5627 424.6219
v  984.9523 -53.1060 289.8239
v  983.3282 -18.0447 364.3673
v  1029.2260 -27.1772 423.3695
v  1135.0294 53.0131 416.3823
v  1094.7698 -79.4651 432.7812
v  1155.7574 -35.2064 384.2521
v  1101.7437 -117.5236 332.0498
# 20 vertices

vn -0.3730 0.9258 0.0605
vn 0.7639 0.4775 -0.4342
vn 0.0079 0.8439 -0.5365
vn -0.1425 0.5276 -0.8374
vn 0.9386 -0.1020 -0.3297
vn 0.8354 0.0601 -0.5464
vn 0.4408 -0.0709 -0.8948
vn 0.1180 0.0072 -0.9930
vn 0.0890 -0.0166 -0.9959
vn -0.5328 0.8332 0.1482
vn -0.4082 0.5392 -0.7366
vn 0.3293 0.9262 0.1836
vn -0.0530 0.8512 0.5222
vn -0.7985 -0.0465 -0.6001
vn -0.8442 0.0275 -0.5353
vn -0.9965 -0.0815 0.0166
vn -0.8617 0.1020 0.4971
vn -0.7918 -0.0440 0.6091
vn -0.3412 0.8914 0.2984
vn 0.0067 0.8399 0.5427
vn -0.0472 0.7461 0.6641
vn 0.7233 0.4521 0.5220
vn -0.1602 -0.0232 0.9868
vn 0.0708 0.1013 0.9923
vn 0.6671 -0.1115 0.7366
vn 0.8398 -0.0004 0.5428
vn 0.9248 -0.1393 0.3539
vn 0.7623 -0.6433 0.0713
vn 0.7033 -0.6475 0.2933
vn 0.8149 -0.5759 0.0650
vn 0.4400 -0.7850 -0.4361
vn -0.6117 -0.7006 0.3674
vn -0.5812 -0.7737 0.2521
vn -0.5460 -0.7626 0.3468
vn -0.2946 -0.8367 -0.4616
vn -0.2131 -0.9403 -0.2653
# 36 vertex normals

vt 0.6667 1.0000 119.0469
vt 0.5000 0.7973 119.0469
vt 0.8333 0.7973 119.0469
vt 0.5000 0.5946 119.0469
vt 0.6667 0.6749 119.0469
vt 0.8333 0.5946 119.0469
vt 0.5000 0.3918 119.0469
vt 0.6056 0.3153 119.0469
vt 0.7277 0.3153 119.0469
vt 0.8333 0.3918 119.0469
vt -0.0000 1.0000 119.0469
vt -0.1667 0.7973 119.0469
vt 0.1667 0.7973 119.0469
vt 1.0000 0.6749 119.0469
vt 0.0000 0.6749 119.0469
vt 0.1667 0.5946 119.0469
vt 0.9389 0.3153 119.0469
vt -0.0611 0.3153 119.0469
vt 0.0611 0.3153 119.0469
vt 0.1667 0.3918 119.0469
vt 0.3333 1.0000 119.0469
vt 0.3333 0.6749 119.0469
vt 0.2723 0.3153 119.0469
vt 0.3944 0.3153 119.0469
vt 0.5000 0.0667 119.0469
# 25 texture coords

g GeoSphere011
usemtl wire_225088199
s off
f 141/185/241 142/186/241 143/187/241 
f 142/186/242 144/188/242 145/189/242 
f 142/186/243 145/189/243 143/187/243 
f 143/187/244 145/189/244 146/190/244 
f 144/188/245 147/191/245 148/192/245 
f 144/188/246 148/192/246 145/189/246 
f 145/189/247 148/192/247 149/193/247 
f 145/189/248 149/193/248 146/190/248 
f 146/190/249 149/193/249 150/194/249 
f 141/195/250 143/196/250 151/197/250 
f 143/187/251 146/190/251 152/198/251 
f 143/196/252 152/199/252 151/197/252 
f 151/197/253 152/199/253 153/200/253 
f 146/190/254 150/194/254 154/201/254 
f 146/190/255 154/201/255 152/198/255 
f 152/199/256 154/202/256 155/203/256 
f 152/199/257 155/203/257 153/200/257 
f 153/200/258 155/203/258 156/204/258 
f 141/205/259 151/197/259 142/186/259 
f 151/197/260 153/200/260 157/206/260 
f 151/197/261 157/206/261 142/186/261 
f 142/186/262 157/206/262 144/188/262 
f 153/200/263 156/204/263 158/207/263 
f 153/200/264 158/207/264 157/206/264 
f 157/206/265 158/207/265 159/208/265 
f 157/206/266 159/208/266 144/188/266 
f 144/188/267 159/208/267 147/191/267 
f 147/191/268 159/208/268 148/192/268 
f 159/208/269 158/207/269 160/209/269 
f 159/208/270 160/209/270 148/192/270 
f 148/192/271 160/209/271 149/193/271 
f 158/207/272 156/204/272 155/203/272 
f 158/207/273 155/203/273 160/209/273 
f 160/209/274 155/203/274 154/202/274 
f 160/209/275 154/201/275 149/193/275 
f 149/193/276 154/201/276 150/194/276 
# 0 polygons - 36 triangles

#
# object GeoSphere012
#

v  1379.5667 181.5840 320.4083
v  1439.9568 113.3376 346.2830
v  1310.1584 65.2251 268.3136
v  1503.3932 66.9658 347.9620
v  1400.7391 30.7203 244.5090
v  1280.7715 26.7921 221.8725
v  1489.9099 -11.2372 318.5720
v  1429.5037 -92.0272 273.8514
v  1380.8966 -68.4075 230.0430
v  1328.0660 -47.3454 224.6334
v  1327.7136 74.8675 390.9355
v  1267.2612 81.1016 342.6525
v  1307.4462 27.7066 419.0378
v  1274.8916 -71.1199 293.9710
v  1262.0243 -62.8701 368.5144
v  1308.2974 -49.6974 419.0361
v  1401.3806 31.9003 420.3668
v  1379.8435 -96.2788 427.2083
v  1433.7767 -73.5229 396.4732
v  1392.7737 -68.5706 334.3306
# 20 vertices

vn 0.4849 0.0997 -0.8688
vn 0.4545 0.5978 -0.6604
vn 0.1140 0.7494 -0.6523
vn 0.1028 0.7334 -0.6720
vn 0.2821 0.2945 -0.9131
vn 0.7102 -0.0019 -0.7040
vn 0.6630 -0.0235 -0.7483
vn 0.1810 0.1064 -0.9777
vn 0.1165 0.0374 -0.9925
vn -0.8722 0.4813 0.0870
vn -0.4125 0.8127 -0.4116
vn 0.1832 0.9777 -0.1031
vn -0.4648 0.5921 0.6584
vn -0.6385 -0.4311 -0.6375
vn -0.9945 -0.0167 -0.1037
vn -0.9853 0.0052 -0.1707
vn -0.8391 0.1256 0.5292
vn -0.7364 -0.0081 0.6765
vn 0.1764 0.4816 0.8584
vn -0.0354 0.5228 0.8518
vn 0.0776 0.6505 0.7555
vn 0.3644 0.5263 0.7683
vn -0.1143 -0.0013 0.9934
vn -0.0166 0.0561 0.9983
vn 0.5072 -0.0393 0.8609
vn 0.5802 -0.0063 0.8144
vn 0.8714 -0.2970 0.3905
vn 0.7811 -0.6208 0.0665
vn 0.2560 -0.9355 -0.2435
vn -0.3421 -0.9273 0.1519
vn -0.4745 -0.8787 0.0527
vn -0.4815 -0.6332 0.6061
vn -0.1195 -0.9467 -0.2991
vn -0.0153 -0.9941 0.1074
vn 0.0231 -0.9997 -0.0042
vn -0.2775 -0.8233 -0.4951
# 36 vertex normals

vt 0.6667 1.0000 119.0469
vt 0.5000 0.7973 119.0469
vt 0.8333 0.7973 119.0469
vt 0.5000 0.5946 119.0469
vt 0.6667 0.6749 119.0469
vt 0.8333 0.5946 119.0469
vt 0.5000 0.3918 119.0469
vt 0.6056 0.3153 119.0469
vt 0.7277 0.3153 119.0469
vt 0.8333 0.3918 119.0469
vt -0.0000 1.0000 119.0469
vt -0.1667 0.7973 119.0469
vt 0.1667 0.7973 119.0469
vt 1.0000 0.6749 119.0469
vt 0.0000 0.6749 119.0469
vt 0.1667 0.5946 119.0469
vt 0.9389 0.3153 119.0469
vt -0.0611 0.3153 119.0469
vt 0.0611 0.3153 119.0469
vt 0.1667 0.3918 119.0469
vt 0.3333 1.0000 119.0469
vt 0.3333 0.6749 119.0469
vt 0.2723 0.3153 119.0469
vt 0.3944 0.3153 119.0469
vt 0.5000 0.0667 119.0469
# 25 texture coords

g GeoSphere012
usemtl wire_225088199
s off
f 161/210/277 162/211/277 163/212/277 
f 162/211/278 164/213/278 165/214/278 
f 162/211/279 165/214/279 163/212/279 
f 163/212/280 165/214/280 166/215/280 
f 164/213/281 167/216/281 168/217/281 
f 164/213/282 168/217/282 165/214/282 
f 165/214/283 168/217/283 169/218/283 
f 165/214/284 169/218/284 166/215/284 
f 166/215/285 169/218/285 170/219/285 
f 161/220/286 163/221/286 171/222/286 
f 163/212/287 166/215/287 172/223/287 
f 163/221/288 172/224/288 171/222/288 
f 171/222/289 172/224/289 173/225/289 
f 166/215/290 170/219/290 174/226/290 
f 166/215/291 174/226/291 172/223/291 
f 172/224/292 174/227/292 175/228/292 
f 172/224/293 175/228/293 173/225/293 
f 173/225/294 175/228/294 176/229/294 
f 161/230/295 171/222/295 162/211/295 
f 171/222/296 173/225/296 177/231/296 
f 171/222/297 177/231/297 162/211/297 
f 162/211/298 177/231/298 164/213/298 
f 173/225/299 176/229/299 178/232/299 
f 173/225/300 178/232/300 177/231/300 
f 177/231/301 178/232/301 179/233/301 
f 177/231/302 179/233/302 164/213/302 
f 164/213/303 179/233/303 167/216/303 
f 167/216/304 179/233/304 168/217/304 
f 179/233/305 178/232/305 180/234/305 
f 179/233/306 180/234/306 168/217/306 
f 168/217/307 180/234/307 169/218/307 
f 178/232/308 176/229/308 175/228/308 
f 178/232/309 175/228/309 180/234/309 
f 180/234/310 175/228/310 174/227/310 
f 180/234/311 174/226/311 169/218/311 
f 169/218/312 174/226/312 170/219/312 
# 0 polygons - 36 triangles

#
# object GeoSphere013
#

v  1586.5105 109.2902 780.7063
v  1658.9390 161.2029 806.5477
v  1512.0266 98.2013 696.2355
v  1694.0771 -25.4883 814.7800
v  1586.9399 88.8069 704.5876
v  1484.0927 39.4105 688.7180
v  1656.2706 -107.9415 801.0744
v  1647.6821 -109.3143 728.6970
v  1578.9359 -72.3160 698.0531
v  1478.9237 -50.3267 675.7440
v  1513.6211 110.8009 852.0756
v  1413.3738 86.6768 812.7719
v  1500.0959 79.0539 939.2953
v  1441.1724 -16.1080 747.8396
v  1438.6262 -91.7195 842.5768
v  1470.4434 -12.1883 922.8104
v  1622.7124 58.0153 928.0854
v  1589.4921 -177.9955 948.6305
v  1656.7725 -84.7343 884.5372
v  1578.5171 -164.7191 804.3980
# 20 vertices

vn -0.6195 0.6338 0.4631
vn 0.7701 0.1173 -0.6271
vn 0.1655 0.7452 -0.6460
vn 0.1192 0.0700 -0.9904
vn 0.9106 -0.4008 -0.1005
vn 0.7888 0.1700 -0.5907
vn 0.4144 0.0163 -0.9100
vn 0.1367 0.0334 -0.9900
vn 0.2421 0.1252 -0.9621
vn -0.0576 0.9951 -0.0799
vn -0.7151 0.4120 -0.5647
vn -0.2047 0.9758 -0.0768
vn -0.3265 0.9033 0.2782
vn -0.8542 0.1223 -0.5053
vn -0.8475 0.1001 -0.5213
vn -0.9738 -0.1641 -0.1571
vn -0.8253 -0.0225 0.5643
vn -0.9520 0.2938 0.0863
vn -0.4142 0.7968 -0.4399
vn 0.1897 0.9128 0.3617
vn -0.0687 0.7705 0.6337
vn 0.8873 0.1856 0.4221
vn -0.3062 -0.0720 0.9493
vn 0.1030 0.0719 0.9921
vn 0.7181 -0.0406 0.6947
vn 0.8617 0.0516 0.5047
vn 0.8957 -0.4297 0.1141
vn -0.9109 -0.3961 0.1156
vn 0.7658 -0.6325 -0.1165
vn 0.6732 -0.7355 0.0767
vn -0.1129 -0.7498 -0.6520
vn -0.6674 -0.3794 0.6408
vn -0.4718 -0.8805 -0.0452
vn -0.4996 -0.6705 -0.5485
vn -0.4786 -0.6619 -0.5770
vn -0.2675 -0.9172 0.2952
# 36 vertex normals

vt 0.6667 1.0000 119.0469
vt 0.5000 0.7973 119.0469
vt 0.8333 0.7973 119.0469
vt 0.5000 0.5946 119.0469
vt 0.6667 0.6749 119.0469
vt 0.8333 0.5946 119.0469
vt 0.5000 0.3918 119.0469
vt 0.6056 0.3153 119.0469
vt 0.7277 0.3153 119.0469
vt 0.8333 0.3918 119.0469
vt -0.0000 1.0000 119.0469
vt -0.1667 0.7973 119.0469
vt 0.1667 0.7973 119.0469
vt 1.0000 0.6749 119.0469
vt 0.0000 0.6749 119.0469
vt 0.1667 0.5946 119.0469
vt 0.9389 0.3153 119.0469
vt -0.0611 0.3153 119.0469
vt 0.0611 0.3153 119.0469
vt 0.1667 0.3918 119.0469
vt 0.3333 1.0000 119.0469
vt 0.3333 0.6749 119.0469
vt 0.2723 0.3153 119.0469
vt 0.3944 0.3153 119.0469
vt 0.5000 0.0667 119.0469
# 25 texture coords

g GeoSphere013
usemtl wire_028149177
s off
f 181/235/313 182/236/313 183/237/313 
f 182/236/314 184/238/314 185/239/314 
f 182/236/315 185/239/315 183/237/315 
f 183/237/316 185/239/316 186/240/316 
f 184/238/317 187/241/317 188/242/317 
f 184/238/318 188/242/318 185/239/318 
f 185/239/319 188/242/319 189/243/319 
f 185/239/320 189/243/320 186/240/320 
f 186/240/321 189/243/321 190/244/321 
f 181/245/322 183/246/322 191/247/322 
f 183/237/323 186/240/323 192/248/323 
f 183/246/324 192/249/324 191/247/324 
f 191/247/325 192/249/325 193/250/325 
f 186/240/326 190/244/326 194/251/326 
f 186/240/327 194/251/327 192/248/327 
f 192/249/328 194/252/328 195/253/328 
f 192/249/329 195/253/329 193/250/329 
f 193/250/330 195/253/330 196/254/330 
f 181/255/331 191/247/331 182/236/331 
f 191/247/332 193/250/332 197/256/332 
f 191/247/333 197/256/333 182/236/333 
f 182/236/334 197/256/334 184/238/334 
f 193/250/335 196/254/335 198/257/335 
f 193/250/336 198/257/336 197/256/336 
f 197/256/337 198/257/337 199/258/337 
f 197/256/338 199/258/338 184/238/338 
f 184/238/339 199/258/339 187/241/339 
f 187/241/340 199/258/340 188/242/340 
f 199/258/341 198/257/341 200/259/341 
f 199/258/342 200/259/342 188/242/342 
f 188/242/343 200/259/343 189/243/343 
f 198/257/344 196/254/344 195/253/344 
f 198/257/345 195/253/345 200/259/345 
f 200/259/346 195/253/346 194/252/346 
f 200/259/347 194/251/347 189/243/347 
f 189/243/348 194/251/348 190/244/348 
# 0 polygons - 36 triangles

#
# object GeoSphere014
#

v  1198.1068 148.3551 794.8704
v  1292.8729 131.1808 799.0886
v  1149.3303 93.7042 721.9295
v  1342.6563 9.6420 817.2030
v  1260.4802 95.1527 680.6236
v  1110.3192 27.1697 671.8524
v  1336.4246 -83.6449 786.8248
v  1284.3958 -102.6033 727.4373
v  1215.5234 -46.8050 684.9885
v  1128.9546 -71.5217 679.6813
v  1149.9209 110.2803 877.7697
v  1074.3979 23.2004 798.0021
v  1116.8767 30.8676 922.4297
v  1082.8763 -148.4782 743.2585
v  1074.4551 -57.8876 837.9957
v  1119.8628 -68.4196 926.7477
v  1256.3879 82.4496 904.1214
v  1217.7051 -83.6640 935.5659
v  1303.5548 -118.0744 883.2775
v  1222.2881 -188.1657 803.3793
# 20 vertices

vn 0.1624 0.7345 -0.6589
vn 0.8875 0.3132 -0.3379
vn -0.1097 0.9589 -0.2616
vn -0.2650 0.6742 -0.6894
vn 0.7126 0.1738 -0.6797
vn 0.8507 -0.0215 -0.5253
vn 0.4203 -0.1606 -0.8931
vn 0.0840 -0.0572 -0.9948
vn 0.0792 -0.0640 -0.9948
vn -0.6932 0.7170 -0.0736
vn -0.7717 0.6035 -0.2007
vn -0.7206 0.6897 -0.0706
vn -0.8337 0.4900 0.2544
vn -0.6763 -0.1843 -0.7132
vn -0.9613 0.0394 -0.2725
vn -0.9978 -0.0302 -0.0598
vn -0.9381 0.1527 0.3109
vn -0.8906 -0.0070 0.4548
vn 0.1360 0.8679 0.4777
vn -0.0775 0.5130 0.8549
vn 0.1193 0.8842 0.4517
vn 0.7958 0.3944 0.4594
vn -0.0834 0.0408 0.9957
vn 0.0659 0.1708 0.9831
vn 0.5305 0.0368 0.8469
vn 0.7495 0.1084 0.6531
vn 0.9509 -0.1514 0.2700
vn 0.4806 -0.8649 -0.1449
vn 0.0644 -0.7817 0.6203
vn 0.7285 -0.6671 -0.1558
vn -0.0495 -0.6427 -0.7645
vn -0.1503 -0.9878 -0.0403
vn -0.4867 -0.6934 0.5313
vn -0.4471 -0.6660 0.5971
vn 0.1489 -0.6307 -0.7616
vn 0.2410 -0.6998 -0.6724
# 36 vertex normals

vt 0.6667 1.0000 119.0469
vt 0.5000 0.7973 119.0469
vt 0.8333 0.7973 119.0469
vt 0.5000 0.5946 119.0469
vt 0.6667 0.6749 119.0469
vt 0.8333 0.5946 119.0469
vt 0.5000 0.3918 119.0469
vt 0.6056 0.3153 119.0469
vt 0.7277 0.3153 119.0469
vt 0.8333 0.3918 119.0469
vt -0.0000 1.0000 119.0469
vt -0.1667 0.7973 119.0469
vt 0.1667 0.7973 119.0469
vt 1.0000 0.6749 119.0469
vt 0.0000 0.6749 119.0469
vt 0.1667 0.5946 119.0469
vt 0.9389 0.3153 119.0469
vt -0.0611 0.3153 119.0469
vt 0.0611 0.3153 119.0469
vt 0.1667 0.3918 119.0469
vt 0.3333 1.0000 119.0469
vt 0.3333 0.6749 119.0469
vt 0.2723 0.3153 119.0469
vt 0.3944 0.3153 119.0469
vt 0.5000 0.0667 119.0469
# 25 texture coords

g GeoSphere014
usemtl wire_028149177
s off
f 201/260/349 202/261/349 203/262/349 
f 202/261/350 204/263/350 205/264/350 
f 202/261/351 205/264/351 203/262/351 
f 203/262/352 205/264/352 206/265/352 
f 204/263/353 207/266/353 208/267/353 
f 204/263/354 208/267/354 205/264/354 
f 205/264/355 208/267/355 209/268/355 
f 205/264/356 209/268/356 206/265/356 
f 206/265/357 209/268/357 210/269/357 
f 201/270/358 203/271/358 211/272/358 
f 203/262/359 206/265/359 212/273/359 
f 203/271/360 212/274/360 211/272/360 
f 211/272/361 212/274/361 213/275/361 
f 206/265/362 210/269/362 214/276/362 
f 206/265/363 214/276/363 212/273/363 
f 212/274/364 214/277/364 215/278/364 
f 212/274/365 215/278/365 213/275/365 
f 213/275/366 215/278/366 216/279/366 
f 201/280/367 211/272/367 202/261/367 
f 211/272/368 213/275/368 217/281/368 
f 211/272/369 217/281/369 202/261/369 
f 202/261/370 217/281/370 204/263/370 
f 213/275/371 216/279/371 218/282/371 
f 213/275/372 218/282/372 217/281/372 
f 217/281/373 218/282/373 219/283/373 
f 217/281/374 219/283/374 204/263/374 
f 204/263/375 219/283/375 207/266/375 
f 207/266/376 219/283/376 208/267/376 
f 219/283/377 218/282/377 220/284/377 
f 219/283/378 220/284/378 208/267/378 
f 208/267/379 220/284/379 209/268/379 
f 218/282/380 216/279/380 215/278/380 
f 218/282/381 215/278/381 220/284/381 
f 220/284/382 215/278/382 214/277/382 
f 220/284/383 214/276/383 209/268/383 
f 209/268/384 214/276/384 210/269/384 
# 0 polygons - 36 triangles

#
# object GeoSphere015
#

v  809.1480 167.5496 816.4868
v  915.1499 80.4906 805.3050
v  776.3439 172.6582 728.6200
v  982.7281 81.4708 788.7928
v  895.7875 29.6140 693.8929
v  766.3885 22.0518 679.8440
v  979.3762 -25.2859 813.7031
v  926.8651 -88.2670 719.6552
v  849.0214 -115.7011 680.8544
v  743.3329 -57.3430 673.4042
v  781.6953 71.2501 884.4601
v  701.8461 81.5569 800.5641
v  745.8842 88.8152 930.4214
v  713.3376 -116.9563 753.7864
v  698.4810 -50.6501 848.5236
v  770.5562 -8.8037 920.4707
v  883.4642 77.4139 917.3907
v  848.2206 -129.1362 931.4318
v  924.0644 -101.0090 875.4953
v  858.7122 -138.0172 803.3541
# 20 vertices

vn 0.6122 0.7690 -0.1838
vn -0.1102 0.9112 -0.3969
vn 0.6505 0.6418 -0.4061
vn 0.0854 0.3019 -0.9495
vn 0.8997 -0.1258 -0.4181
vn 0.7254 0.0411 -0.6871
vn 0.4647 -0.0704 -0.8826
vn 0.1046 0.0554 -0.9930
vn 0.0987 0.0519 -0.9938
vn -0.8185 0.4683 0.3328
vn -0.8067 0.2297 -0.5445
vn -0.4312 0.7494 0.5025
vn 0.2770 0.9495 -0.1470
vn -0.9476 0.2866 -0.1410
vn -0.8659 0.0667 -0.4958
vn -0.9901 -0.0248 -0.1379
vn -0.9404 0.1369 0.3113
vn -0.6162 -0.2324 0.7525
vn 0.4378 0.4318 0.7886
vn 0.0476 0.9449 -0.3240
vn -0.0635 0.9979 0.0094
vn -0.0084 0.9997 0.0251
vn -0.4323 -0.1989 0.8795
vn 0.0983 0.0508 0.9939
vn 0.6046 -0.0491 0.7950
vn 0.7905 0.0363 0.6113
vn 0.6323 0.1572 0.7586
vn 0.7930 -0.6082 -0.0355
vn 0.4078 -0.9080 0.0964
vn 0.5404 -0.8394 -0.0589
vn 0.4109 -0.8906 -0.1948
vn -0.5786 -0.3045 0.7567
vn -0.4738 -0.8804 0.0222
vn -0.2928 -0.8043 0.5170
vn -0.0835 -0.9815 -0.1722
vn -0.3369 -0.6917 -0.6387
# 36 vertex normals

vt 0.6667 1.0000 119.0469
vt 0.5000 0.7973 119.0469
vt 0.8333 0.7973 119.0469
vt 0.5000 0.5946 119.0469
vt 0.6667 0.6749 119.0469
vt 0.8333 0.5946 119.0469
vt 0.5000 0.3918 119.0469
vt 0.6056 0.3153 119.0469
vt 0.7277 0.3153 119.0469
vt 0.8333 0.3918 119.0469
vt -0.0000 1.0000 119.0469
vt -0.1667 0.7973 119.0469
vt 0.1667 0.7973 119.0469
vt 1.0000 0.6749 119.0469
vt 0.0000 0.6749 119.0469
vt 0.1667 0.5946 119.0469
vt 0.9389 0.3153 119.0469
vt -0.0611 0.3153 119.0469
vt 0.0611 0.3153 119.0469
vt 0.1667 0.3918 119.0469
vt 0.3333 1.0000 119.0469
vt 0.3333 0.6749 119.0469
vt 0.2723 0.3153 119.0469
vt 0.3944 0.3153 119.0469
vt 0.5000 0.0667 119.0469
# 25 texture coords

g GeoSphere015
usemtl wire_028149177
s off
f 221/285/385 222/286/385 223/287/385 
f 222/286/386 224/288/386 225/289/386 
f 222/286/387 225/289/387 223/287/387 
f 223/287/388 225/289/388 226/290/388 
f 224/288/389 227/291/389 228/292/389 
f 224/288/390 228/292/390 225/289/390 
f 225/289/391 228/292/391 229/293/391 
f 225/289/392 229/293/392 226/290/392 
f 226/290/393 229/293/393 230/294/393 
f 221/295/394 223/296/394 231/297/394 
f 223/287/395 226/290/395 232/298/395 
f 223/296/396 232/299/396 231/297/396 
f 231/297/397 232/299/397 233/300/397 
f 226/290/398 230/294/398 234/301/398 
f 226/290/399 234/301/399 232/298/399 
f 232/299/400 234/302/400 235/303/400 
f 232/299/401 235/303/401 233/300/401 
f 233/300/402 235/303/402 236/304/402 
f 221/305/403 231/297/403 222/286/403 
f 231/297/404 233/300/404 237/306/404 
f 231/297/405 237/306/405 222/286/405 
f 222/286/406 237/306/406 224/288/406 
f 233/300/407 236/304/407 238/307/407 
f 233/300/408 238/307/408 237/306/408 
f 237/306/409 238/307/409 239/308/409 
f 237/306/410 239/308/410 224/288/410 
f 224/288/411 239/308/411 227/291/411 
f 227/291/412 239/308/412 228/292/412 
f 239/308/413 238/307/413 240/309/413 
f 239/308/414 240/309/414 228/292/414 
f 228/292/415 240/309/415 229/293/415 
f 238/307/416 236/304/416 235/303/416 
f 238/307/417 235/303/417 240/309/417 
f 240/309/418 235/303/418 234/302/418 
f 240/309/419 234/301/419 229/293/419 
f 229/293/420 234/301/420 230/294/420 
# 0 polygons - 36 triangles

#
# object GeoSphere016
#

v  466.8755 134.9425 791.0112
v  556.7505 160.4738 802.1929
v  421.4225 86.6614 718.4050
v  610.9835 -12.7947 811.2084
v  531.1106 68.2155 684.2488
v  393.8361 76.8382 671.4171
v  609.3032 -103.3391 799.7957
v  566.0488 -101.3701 726.0941
v  484.1759 -56.7635 680.3596
v  395.1865 -21.7734 680.8853
v  421.9680 139.8992 874.2451
v  337.4457 73.8756 783.4221
v  394.5186 90.6375 921.9945
v  349.3316 -63.3086 746.1767
v  349.3975 -79.7511 840.9139
v  395.1227 -5.9950 927.9517
v  531.5680 93.8349 907.7466
v  484.4101 -44.1306 930.9370
v  566.5974 -115.0188 881.9342
v  498.3918 -162.1939 793.5766
# 20 vertices

vn -0.1896 0.8682 -0.4586
vn 0.8834 0.2561 -0.3924
vn -0.0560 0.7923 -0.6076
vn 0.0840 0.9643 -0.2509
vn 0.8620 0.0476 -0.5046
vn 0.8599 0.0518 -0.5079
vn 0.4273 -0.1326 -0.8943
vn 0.0928 -0.0039 -0.9957
vn -0.0436 -0.0961 -0.9944
vn -0.4413 0.8496 -0.2887
vn -0.2104 0.9743 -0.0802
vn -0.3662 0.8810 -0.2997
vn -0.7396 0.6332 0.2280
vn -0.7953 -0.0687 -0.6023
vn -0.8928 0.0444 -0.4483
vn -0.9965 -0.0826 -0.0136
vn -0.9254 0.0676 0.3730
vn -0.8927 0.0222 0.4502
vn -0.2464 0.9504 -0.1896
vn 0.0604 0.6772 0.7334
vn 0.1724 0.8138 0.5549
vn 0.8715 0.2932 0.3930
vn -0.0071 0.0615 0.9981
vn 0.0995 0.1318 0.9863
vn 0.4967 -0.0239 0.8676
vn 0.8030 0.0614 0.5928
vn 0.8891 -0.0734 0.4518
vn 0.1034 -0.9908 -0.0871
vn -0.2767 -0.7425 0.6100
vn 0.6273 -0.7756 -0.0701
vn -0.0194 -0.7329 -0.6801
vn -0.2989 -0.6448 0.7035
vn -0.2175 -0.7510 0.6234
vn -0.5141 -0.8451 -0.1463
vn -0.2756 -0.7205 -0.6363
vn -0.2820 -0.7074 -0.6481
# 36 vertex normals

vt 0.6667 1.0000 119.0469
vt 0.5000 0.7973 119.0469
vt 0.8333 0.7973 119.0469
vt 0.5000 0.5946 119.0469
vt 0.6667 0.6749 119.0469
vt 0.8333 0.5946 119.0469
vt 0.5000 0.3918 119.0469
vt 0.6056 0.3153 119.0469
vt 0.7277 0.3153 119.0469
vt 0.8333 0.3918 119.0469
vt -0.0000 1.0000 119.0469
vt -0.1667 0.7973 119.0469
vt 0.1667 0.7973 119.0469
vt 1.0000 0.6749 119.0469
vt 0.0000 0.6749 119.0469
vt 0.1667 0.5946 119.0469
vt 0.9389 0.3153 119.0469
vt -0.0611 0.3153 119.0469
vt 0.0611 0.3153 119.0469
vt 0.1667 0.3918 119.0469
vt 0.3333 1.0000 119.0469
vt 0.3333 0.6749 119.0469
vt 0.2723 0.3153 119.0469
vt 0.3944 0.3153 119.0469
vt 0.5000 0.0667 119.0469
# 25 texture coords

g GeoSphere016
usemtl wire_028149177
s off
f 241/310/421 242/311/421 243/312/421 
f 242/311/422 244/313/422 245/314/422 
f 242/311/423 245/314/423 243/312/423 
f 243/312/424 245/314/424 246/315/424 
f 244/313/425 247/316/425 248/317/425 
f 244/313/426 248/317/426 245/314/426 
f 245/314/427 248/317/427 249/318/427 
f 245/314/428 249/318/428 246/315/428 
f 246/315/429 249/318/429 250/319/429 
f 241/320/430 243/321/430 251/322/430 
f 243/312/431 246/315/431 252/323/431 
f 243/321/432 252/324/432 251/322/432 
f 251/322/433 252/324/433 253/325/433 
f 246/315/434 250/319/434 254/326/434 
f 246/315/435 254/326/435 252/323/435 
f 252/324/436 254/327/436 255/328/436 
f 252/324/437 255/328/437 253/325/437 
f 253/325/438 255/328/438 256/329/438 
f 241/330/439 251/322/439 242/311/439 
f 251/322/440 253/325/440 257/331/440 
f 251/322/441 257/331/441 242/311/441 
f 242/311/442 257/331/442 244/313/442 
f 253/325/443 256/329/443 258/332/443 
f 253/325/444 258/332/444 257/331/444 
f 257/331/445 258/332/445 259/333/445 
f 257/331/446 259/333/446 244/313/446 
f 244/313/447 259/333/447 247/316/447 
f 247/316/448 259/333/448 248/317/448 
f 259/333/449 258/332/449 260/334/449 
f 259/333/450 260/334/450 248/317/450 
f 248/317/451 260/334/451 249/318/451 
f 258/332/452 256/329/452 255/328/452 
f 258/332/453 255/328/453 260/334/453 
f 260/334/454 255/328/454 254/327/454 
f 260/334/455 254/326/455 249/318/455 
f 249/318/456 254/326/456 250/319/456 
# 0 polygons - 36 triangles

#
# object GeoSphere017
#

v  102.2658 163.8531 806.9839
v  193.9032 140.2269 782.0283
v  59.0499 108.0508 724.1343
v  247.6550 64.2290 802.7042
v  167.5397 110.9223 690.4197
v  31.3001 32.8302 663.7254
v  247.2601 -58.5270 791.5212
v  201.2278 -126.2085 727.2106
v  120.3559 -109.1824 676.2894
v  30.8538 -54.1201 684.1363
v  58.6062 54.7601 879.9745
v  -26.2200 6.6876 808.7134
v  29.4668 96.1481 914.3027
v  -15.4044 -191.7578 753.8307
v  -15.6457 -149.7546 848.5680
v  31.2762 -27.7292 931.2028
v  166.4461 72.0481 913.9175
v  119.7992 -97.0905 926.8667
v  201.2834 -92.9525 883.0507
v  134.4264 -120.1021 792.5536
# 20 vertices

vn 0.0531 0.8152 -0.5768
vn 0.8010 0.4635 -0.3788
vn -0.1104 0.9554 -0.2739
vn -0.2388 0.6601 -0.7122
vn 0.7843 0.0538 -0.6180
vn 0.8191 0.0275 -0.5730
vn 0.5232 -0.0576 -0.8502
vn 0.1785 0.0249 -0.9836
vn -0.2198 -0.2219 -0.9500
vn -0.8781 0.4535 0.1526
vn -0.8322 0.4998 -0.2400
vn -0.6279 0.7370 0.2502
vn 0.1825 0.7006 -0.6898
vn -0.6246 -0.1754 -0.7610
vn -0.9314 0.0490 -0.3607
vn -0.9978 -0.0612 0.0246
vn -0.9001 0.0494 0.4328
vn -0.8968 0.0469 0.4399
vn 0.3383 0.4260 0.8391
vn 0.1179 0.6818 -0.7219
vn -0.2661 0.8778 0.3984
vn 0.6687 0.5945 0.4465
vn 0.1543 0.1358 0.9786
vn 0.0155 0.0721 0.9973
vn 0.4751 -0.0639 0.8776
vn 0.8081 0.0610 0.5858
vn 0.8991 -0.0426 0.4356
vn 0.7538 -0.6427 0.1369
vn 0.1476 -0.9721 0.1826
vn 0.1140 -0.9716 0.2073
vn -0.1613 -0.9842 -0.0729
vn -0.3103 -0.4484 0.8383
vn 0.2582 -0.9471 0.1904
vn 0.3152 -0.8673 0.3853
vn 0.4561 -0.8792 -0.1378
vn -0.2940 -0.3513 -0.8889
# 36 vertex normals

vt 0.6667 1.0000 119.0469
vt 0.5000 0.7973 119.0469
vt 0.8333 0.7973 119.0469
vt 0.5000 0.5946 119.0469
vt 0.6667 0.6749 119.0469
vt 0.8333 0.5946 119.0469
vt 0.5000 0.3918 119.0469
vt 0.6056 0.3153 119.0469
vt 0.7277 0.3153 119.0469
vt 0.8333 0.3918 119.0469
vt -0.0000 1.0000 119.0469
vt -0.1667 0.7973 119.0469
vt 0.1667 0.7973 119.0469
vt 1.0000 0.6749 119.0469
vt 0.0000 0.6749 119.0469
vt 0.1667 0.5946 119.0469
vt 0.9389 0.3153 119.0469
vt -0.0611 0.3153 119.0469
vt 0.0611 0.3153 119.0469
vt 0.1667 0.3918 119.0469
vt 0.3333 1.0000 119.0469
vt 0.3333 0.6749 119.0469
vt 0.2723 0.3153 119.0469
vt 0.3944 0.3153 119.0469
vt 0.5000 0.0667 119.0469
# 25 texture coords

g GeoSphere017
usemtl wire_028149177
s off
f 261/335/457 262/336/457 263/337/457 
f 262/336/458 264/338/458 265/339/458 
f 262/336/459 265/339/459 263/337/459 
f 263/337/460 265/339/460 266/340/460 
f 264/338/461 267/341/461 268/342/461 
f 264/338/462 268/342/462 265/339/462 
f 265/339/463 268/342/463 269/343/463 
f 265/339/464 269/343/464 266/340/464 
f 266/340/465 269/343/465 270/344/465 
f 261/345/466 263/346/466 271/347/466 
f 263/337/467 266/340/467 272/348/467 
f 263/346/468 272/349/468 271/347/468 
f 271/347/469 272/349/469 273/350/469 
f 266/340/470 270/344/470 274/351/470 
f 266/340/471 274/351/471 272/348/471 
f 272/349/472 274/352/472 275/353/472 
f 272/349/473 275/353/473 273/350/473 
f 273/350/474 275/353/474 276/354/474 
f 261/355/475 271/347/475 262/336/475 
f 271/347/476 273/350/476 277/356/476 
f 271/347/477 277/356/477 262/336/477 
f 262/336/478 277/356/478 264/338/478 
f 273/350/479 276/354/479 278/357/479 
f 273/350/480 278/357/480 277/356/480 
f 277/356/481 278/357/481 279/358/481 
f 277/356/482 279/358/482 264/338/482 
f 264/338/483 279/358/483 267/341/483 
f 267/341/484 279/358/484 268/342/484 
f 279/358/485 278/357/485 280/359/485 
f 279/358/486 280/359/486 268/342/486 
f 268/342/487 280/359/487 269/343/487 
f 278/357/488 276/354/488 275/353/488 
f 278/357/489 275/353/489 280/359/489 
f 280/359/490 275/353/490 274/352/490 
f 280/359/491 274/351/491 269/343/491 
f 269/343/492 274/351/492 270/344/492 
# 0 polygons - 36 triangles

#
# object GeoSphere018
#

v  -255.2250 226.0726 790.0764
v  -170.1443 128.7638 822.6233
v  -306.9738 -12.8525 728.3138
v  -113.0845 149.2328 808.0679
v  -192.5193 -29.2547 692.3268
v  -346.0496 71.6170 676.2418
v  -114.6157 -9.8720 780.6013
v  -167.1867 -143.9514 732.4664
v  -248.9670 -55.0335 683.9567
v  -327.2928 -32.3180 678.7286
v  -298.0587 57.1965 884.1539
v  -385.9561 122.1024 805.7371
v  -340.3919 56.9695 926.8192
v  -372.7720 -105.4987 748.3997
v  -382.2209 -169.9392 843.1368
v  -332.4677 -91.5834 925.7950
v  -199.1548 47.6034 915.8246
v  -230.7191 -199.9210 934.5340
v  -163.8594 -43.2890 888.3065
v  -225.6464 -139.4818 811.6024
# 20 vertices

vn 0.4740 0.1227 -0.8720
vn -0.3950 0.6171 -0.6806
vn -0.1449 0.6416 -0.7532
vn 0.3170 0.5996 0.7348
vn 0.4331 0.1493 -0.8889
vn 0.8319 -0.0104 -0.5548
vn 0.2597 -0.2674 -0.9279
vn 0.1292 0.0387 -0.9909
vn 0.0630 -0.0125 -0.9979
vn -0.9740 0.2224 -0.0442
vn 0.8813 0.4637 0.0908
vn 0.7294 0.6074 -0.3148
vn 0.3407 0.8755 0.3427
vn -0.7481 -0.1505 -0.6464
vn -0.9531 0.0208 -0.3018
vn -0.9926 -0.0278 -0.1179
vn -0.9289 0.0353 0.3686
vn -0.8349 -0.0483 0.5483
vn 0.1734 0.4454 0.8784
vn 0.0719 0.9945 0.0766
vn -0.1269 0.7673 0.6286
vn -0.1137 0.7665 0.6321
vn -0.0984 -0.0121 0.9951
vn 0.0817 0.0648 0.9945
vn 0.5914 -0.0145 0.8063
vn 0.7384 0.0841 0.6691
vn 0.9156 -0.0770 0.3947
vn 0.8633 -0.4321 0.2607
vn 0.8859 -0.4297 -0.1747
vn 0.5487 -0.7075 0.4453
vn -0.5688 -0.7299 -0.3790
vn -0.5266 -0.4357 0.7300
vn 0.0862 -0.8955 -0.4367
vn 0.0486 -0.8281 -0.5584
vn 0.0479 -0.8290 -0.5572
vn -0.1345 -0.6382 -0.7581
# 36 vertex normals

vt 0.6667 1.0000 119.0469
vt 0.5000 0.7973 119.0469
vt 0.8333 0.7973 119.0469
vt 0.5000 0.5946 119.0469
vt 0.6667 0.6749 119.0469
vt 0.8333 0.5946 119.0469
vt 0.5000 0.3918 119.0469
vt 0.6056 0.3153 119.0469
vt 0.7277 0.3153 119.0469
vt 0.8333 0.3918 119.0469
vt -0.0000 1.0000 119.0469
vt -0.1667 0.7973 119.0469
vt 0.1667 0.7973 119.0469
vt 1.0000 0.6749 119.0469
vt 0.0000 0.6749 119.0469
vt 0.1667 0.5946 119.0469
vt 0.9389 0.3153 119.0469
vt -0.0611 0.3153 119.0469
vt 0.0611 0.3153 119.0469
vt 0.1667 0.3918 119.0469
vt 0.3333 1.0000 119.0469
vt 0.3333 0.6749 119.0469
vt 0.2723 0.3153 119.0469
vt 0.3944 0.3153 119.0469
vt 0.5000 0.0667 119.0469
# 25 texture coords

g GeoSphere018
usemtl wire_028149177
s off
f 281/360/493 282/361/493 283/362/493 
f 282/361/494 284/363/494 285/364/494 
f 282/361/495 285/364/495 283/362/495 
f 283/362/496 285/364/496 286/365/496 
f 284/363/497 287/366/497 288/367/497 
f 284/363/498 288/367/498 285/364/498 
f 285/364/499 288/367/499 289/368/499 
f 285/364/500 289/368/500 286/365/500 
f 286/365/501 289/368/501 290/369/501 
f 281/370/502 283/371/502 291/372/502 
f 283/362/503 286/365/503 292/373/503 
f 283/371/504 292/374/504 291/372/504 
f 291/372/505 292/374/505 293/375/505 
f 286/365/506 290/369/506 294/376/506 
f 286/365/507 294/376/507 292/373/507 
f 292/374/508 294/377/508 295/378/508 
f 292/374/509 295/378/509 293/375/509 
f 293/375/510 295/378/510 296/379/510 
f 281/380/511 291/372/511 282/361/511 
f 291/372/512 293/375/512 297/381/512 
f 291/372/513 297/381/513 282/361/513 
f 282/361/514 297/381/514 284/363/514 
f 293/375/515 296/379/515 298/382/515 
f 293/375/516 298/382/516 297/381/516 
f 297/381/517 298/382/517 299/383/517 
f 297/381/518 299/383/518 284/363/518 
f 284/363/519 299/383/519 287/366/519 
f 287/366/520 299/383/520 288/367/520 
f 299/383/521 298/382/521 300/384/521 
f 299/383/522 300/384/522 288/367/522 
f 288/367/523 300/384/523 289/368/523 
f 298/382/524 296/379/524 295/378/524 
f 298/382/525 295/378/525 300/384/525 
f 300/384/526 295/378/526 294/377/526 
f 300/384/527 294/376/527 289/368/527 
f 289/368/528 294/376/528 290/369/528 
# 0 polygons - 36 triangles

